HW9_AJD
…
#prepare and bake the recipe
first_recipe<- prep(bike_1_recipe)
# bike_1_recipe
bake(first_recipe, bikedata_summary)

# A tibble: 136 × 14
   total_rainfall total_snowfall avg_temperature avg_humidity avg_wind_speed
            <dbl>          <dbl>           <dbl>        <dbl>          <dbl>
 1        -0.328          -0.199          -1.21        -0.885        -0.400 
 2        -0.328          -0.199          -0.897        0.216        -0.143 
 3         0.0249         -0.199          -0.607        1.56         -0.290 
 4        -0.319          -0.199          -1.03        -0.431         2.42  
 5        -0.328          -0.199          -1.37        -1.53         -1.03  
 6        -0.213           2.11           -1.00         0.821        -1.64  
 7        -0.328           2.59           -0.916        0.599        -0.173 
 8        -0.328          -0.199          -1.32        -1.17          0.0597
 9        -0.328          -0.199          -1.07        -0.877        -1.08  
10         0.0337          8.51           -0.908        0.747         0.287 
# ℹ 126 more rows
# ℹ 9 more variables: avg_dew_pt_temp <dbl>, avg_visability <dbl>,
#   avg_solar_radiation <dbl>, total_rental_count <dbl>, seasons_Spring <dbl>,
#   seasons_Summer <dbl>, seasons_Winter <dbl>, holiday_No.Holiday <dbl>,
#   weekday_weekend_Weekend <dbl>
…
#storing metrics as a table 
MLR_coef <- final_fit %>% collect_metrics()

#obtaining the final model fit 
final_MLR_model <- final_fit %>% extract_fit_parsnip()

#tidy table of coefficients 
tidy(final_MLR_model)

# A tibble: 24 × 5
   term                                estimate std.error statistic    p.value
   <chr>                                  <dbl>     <dbl>     <dbl>      <dbl>
 1 (Intercept)                          0.731      0.347      2.11  0.0380    
 2 total_rainfall                      -0.325      0.0820    -3.96  0.000160  
 3 total_snowfall                      -0.00857    0.0367    -0.233 0.816     
 4 avg_temperature                     -1.57       0.966     -1.62  0.109     
 5 avg_humidity                        -0.586      0.336     -1.75  0.0847    
 6 avg_wind_speed                      -0.0361     0.0413    -0.875 0.384     
 7 avg_dew_pt_temp                      2.18       1.10       1.99  0.0502    
 8 avg_visability                       0.0786     0.0550     1.43  0.157     
 9 avg_solar_radiation                  0.373      0.0714     5.23  0.00000131
10 `seasonsSpring_x_holidayNo Holiday` -0.404      0.116     -3.47  0.000829  
# ℹ 14 more rows
…
→ A | warning: A correlation computation is required, but `estimate` is constant and has 0
               standard deviation, resulting in a divide by 0 error. `NA` will be returned.

# lasso_grid

#collect metrics 
lasso_grid %>% 
  collect_metrics() %>% 
  filter(.metric == "rmse")

# A tibble: 200 × 7
    penalty .metric .estimator  mean     n std_err .config               
      <dbl> <chr>   <chr>      <dbl> <int>   <dbl> <chr>                 
 1 1   e-10 rmse    standard   0.467    10  0.0370 Preprocessor1_Model001
 2 1.12e-10 rmse    standard   0.467    10  0.0370 Preprocessor1_Model002
 3 1.26e-10 rmse    standard   0.467    10  0.0370 Preprocessor1_Model003
 4 1.41e-10 rmse    standard   0.467    10  0.0370 Preprocessor1_Model004
 5 1.59e-10 rmse    standard   0.467    10  0.0370 Preprocessor1_Model005
 6 1.78e-10 rmse    standard   0.467    10  0.0370 Preprocessor1_Model006
 7 2.00e-10 rmse    standard   0.467    10  0.0370 Preprocessor1_Model007
 8 2.25e-10 rmse    standard   0.467    10  0.0370 Preprocessor1_Model008
 9 2.52e-10 rmse    standard   0.467    10  0.0370 Preprocessor1_Model009
10 2.83e-10 rmse    standard   0.467    10  0.0370 Preprocessor1_Model010
# ℹ 190 more rows
…
